﻿[
	{
		"_id": "c-100",
		"_parentId": "b-100",
		"_type": "component",
		"_component": "text",
		"_classes": "",
		"_layout": "full",
		"title": "",
		"displayTitle": "",
		"body": "Facebook pikseli, reklamınızın etkinliğini ölçmenize yardımcı olmak ve daha etkili reklamlar yayınlamanızı sağlamak için insanların internet sitenizde gerçekleştirdiği eylemleri kullanır.",
		"instruction": "",
		"_pageLevelProgress": {
			"_isEnabled": false
		}
	},
	{
		"_id": "c-110",
		"_parentId": "b-110",
		"_type": "component",
		"_component": "text",
		"_classes": "",
		"_layout": "full",
		"title": "Temeller",
		"displayTitle": "Temeller",
		"body": "İnternet üzerinden pazarlama konusunda deneyimli pazarlamacılar bu terimler hakkında bilgi sahibi olabilirler. Ancak yeni başlıyorsanız, pikseli kullanmak için önemli olan bu kavramları öğrenin.<br><br>Pikselin gerçek değeri, dönüşümler gibi olayları reklam gösterimleriyle ilişkilendirebilmesi ve reklam gösterimlerini dönüşüm olayları dahil olmak üzere olayları artıracak şekilde yayınlayabilmesinde yatar.",
		"instruction": "",
		"_isComplete": false,
		"_pageLevelProgress": {
			"_isEnabled": true
		}
	},
	{
		"_id": "c-110a",
		"_parentId": "b-110",
		"_type": "component",
		"_component": "survey-radio",
		"_classes": "",
		"_layout": "full",
		"title": "",
		"displayTitle": "",
		"body": "",
		"instruction":"Aşağıda açıklamasını görmek için menüden bir terim seçin.",
		"_isComplete": false,
		"userSelection": [],
		"_items": [
			{
				"label": "Reklam gösterimi",
				"value": "1"
			},
			{
				"label": "Dönüşüm",
				"value": "2"
			},
			{
				"label": "Olay",
				"value": "3"
			},
			{
				"label": "İlişkilendirme",
				"value": "4"
			}
		],
		"_isComplete": false,
		"_pageLevelProgress": {
			"_isEnabled": false
		}
	},
	{
		"_id": "c-110b",
		"_parentId": "b-110",
		"_type": "component",
		"_component": "survey-feedback",
		"_classes": "",
		"_layout": "full",
		"title": "",
		"displayTitle": "",
		"body": "",
		"instruction":"",
		"feedbackBody": "",
		"feedbackPostBody": "",
		"prefix": "",
		"suffix": "",
		"limitFeedback": true,
		"feedback": [
			{
				"resultsFor": ["c-110a"],
				"condition": "is",
				"value": "1",
				"response": "Bir kişi reklamınızı gördüğünde buna reklam <strong>gösterimi</strong> adını veririz."
			},
			{
				"resultsFor": ["c-110a"],
				"condition": "is",
				"value": "2",
				"response": "<strong>Dönüşüm</strong>, bir kişi reklamınızın teşvik ettiği eylemi gerçekleştirdiğinde meydana gelir. Bu eylem ürün satın alma, e-posta listesine abone olma veya bir etkinliğe katılım durumunu bildirme gibi bir eylem olabilir."
			},
			{
				"resultsFor": ["c-110a"],
				"condition": "is",
				"value": "3",
				"response": "<strong>Olay</strong>, internet sitenizde, e-ticaret platformunuzda veya içerik yönetimi sisteminizde gerçekleşen her şeydir. Piksel; sayfa ziyaretleri, alışverişler ve kayıtlar gibi olayları ölçer."
			},
			{
				"resultsFor": ["c-110a"],
				"condition": "is",
				"value": "4",
				"response": "İnsanlar reklamınızı görüp veya reklamınıza tıklayıp <em>ardından</em> yapmalarını istediğiniz eylemi yaptığında, bu dönüşümleri ilgili reklam gösterimleriyle <strong>ilişkilendirebilirsiniz</strong>. <br><br>Bir reklamın eyleme sebep olduğunu rahatlıkla söyleyebildiğimiz sınırlı bir zaman aralığı vardır ve buna <strong>ilişkilendirme aralığı</strong> adını veririz."
			}
		],
		"_isComplete": true,
		"_pageLevelProgress": {
			"_isEnabled": false
		}
	},
	{
		"_id":"c-120",
		"_parentId":"b-120",
		"_type":"component",
		"_component":"text",
		"_classes":"",
		"_layout":"full",
		"title":"Piksel neler yapabilir?",
		"displayTitle":"Piksel neler yapabilir?",
		"instruction":"",
		"body":"Bir piksel oluşturup internet sitenize bağlayarak:<br><br><ul><li><strong>Reklamlarınızın doğru kişilere, doğru cihazlarda, doğru zamanda gösterildiğinden emin olun</strong>: İnsanların internet sitenizi nasıl kullandığını bilmek, daha sonra neler yapabilecekleri hakkında fikir verebilir. Bu sayede Facebook, reklamlarınızı istediğiniz eylemde bulunma olasılığı en yüksek olan kişilere yayınlayabilir. </li><li><strong>Reklamlarınız için etkili hedef kitleler oluşturun</strong>: Özel Hedef Kitleler, reklamlarınızı insanlara internet sitenizle daha önce nasıl etkileşime geçtiklerine dayalı olarak gösterebilir. Benzer Hedef Kitleler, mevcut ziyaretçi ve müşterilerle benzerliklerinden yola çıkarak reklam yayınını yeni insanlara hedefler. </li><li><strong>Çapraz cihaz dönüşümlerini ölçün</strong>: Müşterilerin içeriklerinizle etkileşimde bulunurken cihazlar arasında nasıl geçiş yaptığını görün ve dönüşüm gerçekleştirme olasılıklarının en yüksek olduğu cihazları belirleyin.</li><li><strong>Daha fazla Facebook reklam aracını kullanmaya başlayın</strong>: İnternet dönüşüm kampanyaları, internet sitenizden Özel Hedef Kitleler, dinamik reklam yayını ve potansiyel müşteri başına ücret veya dönüşüm başına ücret gibi ölçümler <em>yalnızca</em> internet sitelerine pikseli yükleyen reklamverenler tarafından kullanılabilir.</li><li>İnternetteki davranışları Facebook, Instagram, Messenger ve Audience Network reklamlarınızla daha doğru şekilde ilişkilendirerek <strong>reklam harcamanızın getirisini daha iyi değerlendirin</strong>. </li></ul><br>Piksel sayesinde reklam yayınında güçlü, eyleme yönelik ve maliyet tasarrufu sağlayan ayarlamalar yapabilirsiniz; örneğin internet sitenizi hiç ziyaret etmemiş kişilere marka bilinirliği kampanyaları yayınlamak veya internet sitenizde alışveriş sepetine ürün eklemiş ancak satın almamış kişilere sınırlı süreli indirim kodları sunmak.",
		"_isComplete": true,
		"_pageLevelProgress": {
			"_isEnabled": true
		}
	},
	{
		"_id":"c-130",
		"_parentId":"b-130",
		"_type":"component",
		"_component":"text",
		"_classes":"",
		"_layout":"full",
		"title":"Piksel nasıl çalışır?",
		"displayTitle":"Piksel nasıl çalışır?",
		"instruction":"",
		"body":"Piksel, internet sitenizdeki eylemleri kaydeden küçük bir kod parçasıdır. İki kısımdan oluşur:<br><br><ul><li><strong>Pikselin sabit kodu</strong> belirli olayları ölçerken bir başlangıç noktası sağlaması için internet sitenizin <em>tüm sayfalarına</em> yüklenir.</li><li><strong>Olay kodu</strong> yalnızca internet sitenizde işletme hedefiniz için önemli olan olayları veya eylemleri ölçmek istediğiniz <em>belirli sayfalara</em> yüklenir.</li></ul><br>Hangi sayfa ziyaretlerinin ve hangi eylemlerin pikseli tetikleyeceğini siz belirlersiniz. Piksel, önceden programlanmış bir standart olay setini içerir, ancak işletme hedeflerinize dayalı olarak kendi özel olaylarınızı da oluşturabilirsiniz.<br><br>Bu, potansiyel müşteriler bulma, reklamları hedefleme, yeniden pazarlama, dönüşüm takibi ve optimizasyon stratejilerinde size yol gösterebilir. Ayrıca, piksel farklı cihazlardaki müşteri eylemlerini takip etmenize yardımcı olabilir.<br><br>Tüm veriler, gizliliği koruyan bir veri şifreleme <em>(hashing)</em> yöntemiyle gönderilip alınır. Sitenizden gelen bilgilerin kimlik bilgileri gizlenir, yine kimlik bilgileri gizlenmiş Facebook verileriyle eşleştirilirler ve ardından güvenli şekilde silinirler.",
		"_isComplete": true,
		"_pageLevelProgress": {
			"_isEnabled": true
		}
	},
		{
		"_id":"c-140",
		"_parentId":"b-140",
		"_type":"component",
		"_component":"text",
		"_classes":"",
		"_layout":"full",
		"title":"Öğrenme amaçları",
		"displayTitle":"Öğrenme amaçları",
		"instruction":"",
		"body":"Bu kursun sonunda şunları yapabileceksiniz:<br><br><ul><li>Pikseli internet sitenize veya e-ticaret platformunuza yükleme.</li><li>Pikseli üçüncü taraf platformlar ve araçlarla entegre etme.</li><li>Piksel ile potansiyel müşteri bulma ve dönüşüm kampanyaları oluşturma.</li><li>Pikselin hangi tür olayları kaydedebileceğini ve ölçebileceğini anlama.</li><li>Pikselden elde edilen verilerden eyleme geçirilebilir sonuçlar çıkarma.</li></ul>",
			"_isComplete": true,
		"_pageLevelProgress": {
			"_isEnabled": true
		}
	},
	{
		"_id":"c-199",
		"_parentId":"b-199",
		"_type":"component",
		"_component":"co-jump",
		"_classes":"color-test",
		"_preLinkBody":"Şimdi ",
		"_linkBody":"başlayalım",
		"_postLinkBody":" ve bir piksel oluşturup internet sitenize bağlayalım.",
		"_link":"#/id/co-200",
		"_graphic":"adapt/css/assets/icon_nextPage.png",
		"_isComplete": true,
		"_pageLevelProgress": {
			"_isEnabled": false
		}
	},
	{
		"_id": "c-200",
		"_parentId": "b-200",
		"_type": "component",
		"_component": "graphic",
		"_classes": "",
		"_layout": "full",
		"title": "Reklam Yöneticisi’nde piksel oluşturma",
		"displayTitle": "",
		"body": "Bir pikseli <a href='https://www.facebook.com/ads/manager/' target='_blank'>Facebook reklam hesabınızdan</a> oluşturup yönetebilirsiniz.",
		"instruction": "",
		"_graphic": {
			"alt": "",
			"src": "course/en/images/nav_pixel.png"
		},
		"_isComplete": false,
		"_pageLevelProgress": {
			"_isEnabled": true
		}
	},
	{
		"_id":"c-210",
		"_parentId":"b-210",
		"_type":"component",
		"_component":"text",
		"_classes":"",
		"_layout":"full",
		"title": "",
		"displayTitle": "",
		"body": "<ol><li>Pikseller alanından “Bir Piksel Oluştur” seçeneğine tıklayın.</li><li>Pikseliniz için bir ad girin. Reklam hesabı başına tek bir piksel kullanabileceğiniz için işletmenizi temsil eden bir ad seçin. Bu adı istediğiniz zaman değiştirebilirsiniz.</li><li>“Piksel Oluştur” seçeneğine tıklayın.</li><li>Kutuyu işaretleyerek koşulları kabul edin.</li><li>Piksel kodunu kendiniz bağlamak için “Şimdi Yükle” seçeneğine veya internet geliştiricinize göndermek için “Piksel Kodunu E-postayla Gönder” seçeneğine tıklayın.</li></ol><br>Bir Facebook reklam hesabında tek bir piksel bulunabileceğine dikkat edin. Birden çok piksele ihtiyacı olan işletmeler, Business Manager hesabı ile on adede kadar piksel kullanabilir. Pikseller oluşturulduktan sonra silinemez ancak pikselleri istediğiniz zaman düzenleyebilir veya yeniden adlandırabilirsiniz.",
		"instruction": "",
		"_isComplete": true,
		"_pageLevelProgress": {
			"_isEnabled": false
		}
	},
	{
		"_id":"c-220",
		"_parentId":"b-220",
		"_type":"component",
		"_component":"accordion",
		"_classes":"",
		"_layout":"full",
		"title": "Pikselin sabit kodunu yükleme",
		"displayTitle": "Pikselin sabit kodunu yükleme",
		"body": "İnternetteki varlıklarınızı nasıl yönettiğinize dayalı olarak pikseli bağlamak için Facebook’un sunduğu birkaç farklı yol vardır.",
		"instruction": "",
		"_trackingEvent":"viewed",
		"_trackedDrawers":[2,3],
		"_pageLevelProgress": {
			"_isEnabled": true
		},
		"_items": [
			{
				"title": "İnternet siteniz için",
				"body": "Bir piksel oluşturduktan sonra siz veya geliştiriciniz gösterilen kodu kopyalayıp internet sayfanıza ekleyerek pikseli yükleyebilirsiniz.<br><br><ol><li><strong>Eylemler > Kodu Gör</strong>’e tıklayın</li><li>Sabit kodu kopyalayıp her bir internet sayfasında kapanış <code>&lt;/head></code> etiketinin öncesine yapıştırın veya internet sitenizin tümüne yüklemek için internet sitesi şablonunuzdaki aynı konuma yapıştırın. </li></ol>"
			},
			{
				"title": "Etiket yöneticiniz için",
				"body": "Etiketler ve pikseller aynı şeyi temsil eden farklı terimlerdir: işletmeler adına verileri toplayan ve taşıyan JavaScript parçaları.<br><br>Kuruluşunuz analizleri entegre etmek veya kişilerin çevrimiçi davranışlarına dayanarak internet sitesi eylemlerini tetiklemek için Adobe, Google veya Tealium’unki gibi bir etiket yönetimi çözümü kullanıyorsa <a href='https://facebook.com/business/help/1179210765468894' target='_blank'>Facebook pikselini etiket yöneticinize ekleyebilirsiniz</a>."
			},
			{
				"title": "Üçüncü taraf web platformunuz için",
				"body": "Squarespace, Shopify, WordPress, Wix, Weebly veya Eventbrite gibi <a href='https://facebook.com/business/help/457075141160886' target='_blank'>yayın veya e-ticaret platformlarına pikseli ekleme</a> konusunda ayrıntılı bilgiyi Facebook for Business Reklamveren Yardım Merkezi’nden alabilirsiniz."
			}
		],
		"_isComplete": false,
		"_pageLevelProgress": {
			"_isEnabled": true
		}
	},
	{
		"_id": "c-230",
		"_parentId": "b-230",
		"_type": "component",
		"_component": "graphic",
		"_classes": "",
		"_layout": "full",
		"title": "Ne kadar teknik bilgi gereklidir?",
		"displayTitle": "Ne kadar teknik bilgi gereklidir?",
		"body": "Pikseli kullanmak için mühendis olmanız gerekmez ancak bir internet sitesinin arayüzünde çalışmış olmak işinize yarar.<br><br>HTML tabanlı bir internet sitesine entegre ettiğinizde piksel aşağıdaki gibi görünür.",
		"instruction": "",
		"_graphic": {
			"alt": "",
			"src": "course/en/images/pixel_code.png"
		},
		"_isComplete": false,
		"_pageLevelProgress": {
			"_isEnabled": true
		}
	},
	{
		"_id":"c-240",
		"_parentId":"b-240",
		"_type":"component",
		"_component":"text",
		"_classes":"",
		"_layout":"full",
		"title":"Geliştiricilere yönelik kaynaklar",
		"displayTitle":"",
		"body": "Yukarıdaki örnekte sabit kod mavi, olay kodu kırmızıdır. (Sabit koda reklam hesabınızdan eriştiğinizde piksel kimliğinizi de içeriyor olacaktır.)<br><br>Arka uçta çalışmak veya pikseli Facebook API’leriyle entegre etmek isteyen bir web geliştiricisiyseniz ya da böyle bir geliştiriciniz varsa, aşağıdaki kaynaklarda detaylı bilgiler bulabilirsiniz:<br><br><ul><li><a href='https://developers.facebook.com/docs/facebook-pixel/using-the-pixel' target='_blank'>Facebook Pikselini Kullanmaya Başlama</a></li><li><a href='https://developers.facebook.com/docs/marketing-api/audiences-api/pixel' target='_blank'>Pazarlama API’sini Facebook Pikseliyle Kullanma</a></li></ul>",
		"instruction":"",
		"_isComplete": true,
		"_pageLevelProgress": {
			"_isEnabled": true
		}
	},
	{
		"_id": "c-250",
		"_parentId": "b-250",
		"_type": "component",
		"_component": "text",
		"_classes": "",
		"_layout": "full",
		"title": "Pikselinizin çalıştığını doğrulama",
		"displayTitle": "Pikselinizin çalıştığını doğrulama",
		"body": "Pikselin kaydedeceği olayları seçmeden önce, doğru yüklendiğinden emin olmak için pikselinize bir test olayı gönderme imkanınız olacaktır.<br><br>Pikselinizin durumu aşağıdakilerden biri olabilir:<br><ol><li><strong>Aktif</strong>: Her şey düzgün şekilde çalışıyor.</li><li><strong>Aktif Değil</strong>: Son 24 saat içinde hiç yeni olay kaydedilmemiş.</li><li><strong>Doğrulanmamış</strong>: Hiç olay kaydedilmemiş.</li></ol><br>Pikseliniz aktif değilse aşağıdaki olası sebepleri inceleyebilirsiniz:<br><ul><li>Kod parçasının doğru internet sayfalarında doğru konuma yerleştirilip yerleştirilmediğini kontrol edin. Dönüşüm sayfanıza gidin ve sayfanın kaynak kodunu görüntüleyin. Kod parçası doğru şekilde eklendiyse, kodu HTML etiketinde <head> görürsünüz.</li><li>Kod parçasını dönüşümün takip edildiği internet sayfasındaki doğru Facebook pikseli için düzgün şekilde yükleyip yapılandırdığınızdan emin olun. Örneğin bir e-ticaret sitesinde verilen siparişlerin sayısını takip etmek istiyorsanız, Facebook pikselini “Siparişiniz için teşekkürler” sayfasına yerleştirmeniz uygun olabilir.</li></ul><br>Kaydedilen tüm piksel hareketlerini incelemek için reklam hesabınızın Pikseller sekmesindeki grafiği istediğiniz zaman kontrol edebilirsiniz.",
		"instruction": "",
		"_isComplete": true,
		"_pageLevelProgress": {
			"_isEnabled": true
		}
	},
	{
		"_id":"c-299",
		"_parentId":"b-299",
		"_type":"component",
		"_component":"co-jump",
		"_classes":"color-test",
		"_preLinkBody":"Şimdi pikselin hangi işletme sorunlarını çözmek için tasarlandığını görelim ve ",
		"_linkBody":"stratejinizi belirleme",
		"_postLinkBody":" adımına geçelim.",
		"_link":"#/id/co-300",
		"_graphic":"adapt/css/assets/icon_nextPage.png",
		"_isComplete": true,
		"_pageLevelProgress": {
				"_isEnabled": false
		}
	},
	{
		"_id":"c-300",
		"_parentId":"b-300",
		"_type":"component",
		"_component":"graphic",
		"_classes":"",
		"_layout":"left",
		"title": "",
		"displayTitle": "",
		"body": "",
		"instruction": "",
		"_graphic": {
			"alt": "Bir internet sitesindeki alışveriş sepetinde satın alınmadan bırakılan ürünü gösteren bir reklam; eylem çağrısı alışverişi tamamlamaya teşvik ediyor.",
			"src": "course/en/images/remarketing_ad.png"
		},
		"_isComplete": true,
		"_pageLevelProgress": {
			"_isEnabled": false
		}
	},
	{
		"_id":"c-300r",
		"_parentId":"b-300",
		"_type":"component",
		"_component":"text",
		"_classes":"",
		"_layout":"right",
		"title": "Site ziyaretçilerinin toplu davranışlarından faydalanın",
		"displayTitle": "",
		"body": "Piksel sayesinde kişilerin toplu olarak internet sitenizde cihazlar arasında nasıl geçiş yaptıklarını, internet sitenizin hangi alanlarını ziyaret ettiklerini ve bu alanlarda neler yaptıklarını belirleyebilirsiniz.<br><br>Bu bilgileri kişilerin davranışları, alışverişleri, satın aldıkları veya dilek listesine ekledikleri ürünlerin parasal değerleri, ziyaret ettikleri sayfalar gibi kriterlere göre reklam yayınlamak için kullanın.<br><br>Bu şekilde, reklam yayınını kişilerin alışveriş yapmaya ne kadar yakın olduklarına göre hedefleyebilir ve yüksek değerli müşterilerle ortak özelliklerine dayalı olarak yeni hedef kitleler belirleyebilirsiniz.",
		"instruction": "",
		"_isComplete": true,
		"_pageLevelProgress": {
			"_isEnabled": true
		}
	},
	{
		"_id": "c-310",
		"_parentId": "b-310",
		"_type": "component",
		"_component": "text",
		"_classes": "",
		"_layout": "full",
		"title": "Hedefinizi belirleme",
		"displayTitle": "Hedefinizi belirleme",
		"body": "<h2>Yanıt verecek hedef kitleleri ortaya çıkarma</h2><br>Piksel verilerini Özel ve sonra da Benzer Hedef Kitleler oluşturmak için kaynak olarak kullanabilirsiniz. <br><br>İnternet sitesi <strong>Özel Hedef Kitleleri</strong>, reklamlarınızı hedefleyebileceğiniz hedef kitleler oluşturmak için piksel verilerini kullanır. İnternet sitesinden Özel Hedef Kitleler dinamik olarak güncellendiğinden, son 30 gün içinde siteyi ziyaret etmemiş kişilere reklam yayınlamak istediğinizde karşınıza çıkacak liste her zaman farklı olacaktır. Reklamlarınızda sadece internet sitenizin belirli bir sayfasını ziyaret eden veya belirli bir eylemi gerçekleştiren kişileri hedefleyebilirsiniz.<br><br>Bir <strong>Benzer Hedef Kitleye</strong> kaynak olarak bir internet sitesi Özel Hedef Kitlesi kullanırsanız, Facebook pikselin oluşturduğu asıl hedef kitleye benzeyen kişilere reklam yayınlar. Yani, işlem başına minimum harcama tutarına göre oluşturulan bir Özel Hedef Kitle, internet sitenizi hiç ziyaret etmemiş veya alışveriş yapmamış ancak yüksek değerli müşteri olabilecek kişileri içeren bir Benzer Hedef Kitlenin kaynağı olabilir.<br><br><br><h2>Dönüşümler için ölçüm yapma</h2><br>Yalnızca piksel olaylarını internet sitenize eklemeniz halinde erişebileceğiniz çok sayıda eyleme geçirilebilir veri bulunmaktadır. Bu bilgiler, dönüşüm için optimize edilmiş kampanyaları daha iyi planlamanıza ve yürütmenize yardımcı olabilir. Aşağıdakileri yapmak isterseniz, bir piksel <em>yüklemeniz gerekir</em>:<br><br><ul><li><strong>Çapraz cihaz raporlarını etkinleştirme</strong>. Çapraz cihaz raporları, insanların internet sitenizde dönüşüm gerçekleştirmeden önce reklamınızı hangi cihazlarda gördüğünü öğrenmenize olanak sağlar. Örneğin, bir kişi cep telefonunda bir reklam görüp daha sonra bilgisayardan satın almaya karar verirse bu dönüşüm bir çapraz cihaz raporunda yakalanabilir.</li><li><strong>Dönüşümleri ve olayları belirli reklamlarla ilişkilendirme</strong>. İlişkilendirme verilerine erişmek için Dönüşüm reklam verme amacını seçin ve reklamı oluştururken reklam seti seviyesinde en alakalı piksel olayını seçin.</li><li><strong>İşletme hedefi bazında tam reklam harcaması getirisine erişme</strong>. Tüm kampanyaların somut bir reklam verme amacı olduğundan Facebook reklamlarının etkinliğini ölçmek kolaydır. Bir pikseli internet sitenizle ilişkilendirmek, yayınladığınız her reklam ve yürüttüğünüz her kampanyanın yatırım getirisi hakkında potansiyel müşteri başına ücret, kayıt başına ücret, alışveriş sepetine eklenen ürün başına ücret, mağaza ziyareti başına ücret gibi detaylı bilgiler sağlayabilir.</li>",
		"instruction": "",
		"_isComplete": true,
		"_pageLevelProgress": {
			"_isEnabled": true
		}
	},
	{
		"_id": "c-320",
		"_parentId": "b-320",
		"_type": "component",
		"_component": "graphic",
		"_classes": "",
		"_layout": "full",
		"title": "Pikselinizi paylaşma",
		"displayTitle": "Pikselinizi paylaşma",
		"instruction": "",
		"body": "Kuruluşunuzdaki diğer kişilerin veya harici satıcıların ve reklam ajanslarının pikselinizi ve verilerini kullanmasına izin vermek için bir Facebook <strong>Business Manager</strong> hesabınızın olması gerekir.<br><br>Business Manager, farklı departmanlardan ve şirket dışından kişilerin Facebook’taki pazarlama çalışmalarınızda size yardımcı olmasına imkan tanırken Sayfalar, reklam hesabı, pikseller ve hedef kitleler gibi varlıklarınızın güvenli şekilde yönetildiğinden emin olur. <br><br>Bir pikseli paylaşmak için İşletme Ayarlarına gidin.",
		"_graphic": {
			"alt": "Bir internet sitesindeki alışveriş sepetinde satın alınmadan bırakılan ürünü gösteren bir reklam; eylem çağrısı alışverişi tamamlamaya teşvik ediyor.",
			"src": "course/en/images/pixel_share.png"
		},
		"_isComplete": true,
		"_pageLevelProgress": {
			"_isEnabled": true
		}
	},
	{
		"_id": "c-330",
		"_parentId": "b-330",
		"_type": "component",
		"_component": "text",
		"_classes": "",
		"_layout": "full",
		"title": "Paylaşımı yönetin",
		"displayTitle": "",
		"body": "<strong>Kişiler ve Varlıklar</strong> sekmesinde <strong>Pikseller</strong> bölümünü genişletin.<br><br>İki paylaşma seçeneği göreceksiniz:<br><ul><li>Piksel verilerini Business Manager ile ilişkili bir reklam hesabına erişimi olan kişilerle paylaşmak için <strong>Reklam Hesapları Ata</strong>’yı seçin.</li><li>Satıcı veya reklam ajansı gibi harici bir ortağın bu pikseli kullanmasına izin vermek için <strong>Ortak Ata</strong>’yı seçin.</li></ol><br>Paylaşmayı durdurma işlemini de yine buradan yapabilirsiniz.",
		"instruction": "",
		"_isComplete": true,
		"_pageLevelProgress": {
			"_isEnabled": false
		}
	},
	{
		"_id": "c-340",
		"_parentId": "b-340",
		"_type": "component",
		"_component": "text",
		"_classes": "",
		"_layout": "full",
		"title": "Daha fazla kaynak",
		"displayTitle": "Daha fazla kaynak",
		"body": "Daha fazla bilgi almak için aşağıdaki Blueprint kurslarına göz atın:<br><cite><ul><li>Hedefleme: Özel Hedef Kitleler</li><li>Hedefleme: Benzer Hedef Kitleler</li><li>Business Manager</li></ul></cite>",
		"instruction": "",
		"_isComplete": true,
		"_pageLevelProgress": {
			"_isEnabled": true
		}
	},
	{
		"_id":"c-399",
		"_parentId":"b-399",
		"_type":"component",
		"_component":"co-jump",
		"_classes":"color-test",
		"_preLinkBody":"Şimdi piksel olaylarının ve dönüşümlerin nasıl uygulanacağını ve ölçüleceğini ",
		"_linkBody":"adım adım",
		"_postLinkBody":" inceleyelim.",
		"_link":"#/id/co-400",
		"_graphic":"adapt/css/assets/icon_nextPage.png",
		"_pageLevelProgress": {
			"_isEnabled": false
		}
	},





	{
		"_id": "c-400",
		"_parentId": "b-400",
		"_type": "component",
		"_component": "text",
		"_classes": "",
		"_layout": "full",
		"title": "Olaylar nedir?",
		"displayTitle": "",
		"body": "Tamamlamak üzereyiz. Sabit kodunuzu yükledikten sonra sıradaki adım olay kodunu yüklemektir. Olaylar, Facebook reklamlarının (ücretli) veya organik erişimin (ücretsiz) sonucu olarak insanların internet sitenizde gerçekleştirdiği tüm eylemlerdir. Olay kodu, Facebook reklamlarınızda bu eylemlerden yararlanmanıza olanak sağlar.<br><br>İnternet sitenizde bir eylem gerçekleştiğinde, Facebook pikseliniz bunu bir olay olarak kaydeder. İnternet sitenize uygun kodu ekleyerek dönüşümleri takip etmek, dönüşümler için optimizasyon yapmak ve hedef kitleler oluşturmak için olayları kullanabilirsiniz. <br><br>Piksel iki tür olayı kaydedebilir: standart ve özel. <br><br>Birçok reklamveren özel olaylar oluşturmaya yönelir ancak aslında standart olaylar daha etkili olabilir çünkü Facebook bu eylemleri reklamlarınızın nasıl, nerede ve kime yayınlanacağını belirlemek için kullanır.<br><br><table class='table-style-1'><tr><th></th><th>Standart</th><th>Özel</th></tr><tr><th>Olayları takip etme</th><td><img src='course/en/images/icon_checkmark.png' alt=\"Evet\"></td><td><img src='course/en/images/icon_checkmark.png' alt=\"Evet\"></td></tr><tr><th>Reklam yayınını optimize etme</th><td><img src='course/en/images/icon_checkmark.png' alt=\"Evet\"></td><td><img src='course/en/images/not_recommended.png' alt=\"Hayır\"></td></tr><tr><th>Hedef kitleler oluşturma</th><td><img src='course/en/images/icon_checkmark.png' alt=\"Evet\"></td><td><img src='course/en/images/not_recommended.png' alt=\"Hayır\"></td></tr></table>",
		"instruction": "",
		"_isComplete": true,
		"_pageLevelProgress": {
			"_isEnabled": true
		}
	},
	{
		"_id": "c-410",
		"_parentId": "b-410",
		"_type": "component",
		"_component": "survey-radio",
		"_classes": "",
		"_layout": "full",
		"title": "Olay hedeflemesi nasıl çalışır?",
		"displayTitle": "Olay hedeflemesi nasıl çalışır?",
		"body": "",
		"instruction":"",
		"_isComplete": false,
		"_pageLevelProgress": {
			"_isEnabled": true
		}
	},
	{
		"_id": "c-410l",
		"_parentId": "b-410",
		"_type": "component",
		"_component": "survey-radio",
		"_classes": "",
		"_layout": "left",
		"title": "",
		"displayTitle": "",
		"body": "",
		"instruction":"Bu sayfa görüntülenmelerini takip etmenin faydalı olup olmadığını öğrenmek için menüden bir seçim yapın.",
		"_isComplete": false,
		"userSelection": [],
		"_items": [
			{
				"label": "Kadın ayakkabıları",
				"value": "1"
			},
			{
				"label": "Kadın ayakkabıları > model:topuklu",
				"value": "2"
			},
			{
				"label": "Kadın ayakkabıları > model:topuklu > renk:kırmızı",
				"value": "3"
			},
			{
				"label": "Kadın ayakkabıları > model:topuklu > renk:kırmızı > numara:37",
				"value": "4"
			}
		],
		"_isComplete": false,
		"_pageLevelProgress": {
			"_isEnabled": false
		}
	},
	{
		"_id": "c-410r",
		"_parentId": "b-410",
		"_type": "component",
		"_component": "survey-feedback",
		"_classes": "",
		"_layout": "right",
		"title": "",
		"displayTitle": "",
		"body": "",
		"instruction":"",
		"feedbackBody": "",
		"feedbackPostBody": "",
		"prefix": "",
		"suffix": "",
		"limitFeedback": true,
		"feedback": [
			{
				"resultsFor": ["c-410l"],
				"condition": "is",
				"value": "1",
				"response": "Bu segmentteki kişi sayısı oldukça fazla; reklamları etkili şekilde hedeflemek zor olabilir."
			},
			{
				"resultsFor": ["c-410l"],
				"condition": "is",
				"value": "2",
				"response": "Bu, hedeflemek için harika bir hedef kitle. İnternetten topuklu ayakkabı alışverişi yapan kadınların bu alışverişi düzenli olarak yapma ve topuklu ayakkabı içeren hedeflemeli reklamlara yanıt verme olasılıkları yüksektir."
			},
			{
				"resultsFor": ["c-410l"],
				"condition": "is",
				"value": "3",
				"response": "Bu biraz fazla detaylı oldu. Topuklu kırmızı ayakkabı alışverişi muhtemelen sık yapılacak bir alışveriş değildir."
			},
			{
				"resultsFor": ["c-410l"],
				"condition": "is",
				"value": "4",
				"response": "Hedef kitle çok küçük ve bu kişileri hedeflemek verimli olmayacaktır."
			}
		],
		"_isComplete": true,
		"_pageLevelProgress": {
			"_isEnabled": false
		}
	},
	{
		"_id": "c-420",
		"_parentId": "b-420",
		"_type": "component",
		"_component": "text",
		"_classes": "",
		"_layout": "full",
		"title": "Standart olaylar",
		"displayTitle": "Standart olaylar",
		"body": "Standart olaylar, bazı yaygın ve yüksek derecede eyleme yönelik olayları takip eder. İlgili olay kodunu eklediğiniz sayfalarda bir kişi aşağıdaki eylemlerden birini her gerçekleştirdiğinde pikseliniz harekete geçecektir:<br><br><ol><li>İçerik görüntüleme</li><li>Arama</li><li>Sepete ekleme</li><li>Dilek listesine ekleme</li><li>Alışveriş başlatma</li><li>Ödeme bilgileri ekleme</li><li>Alışveriş yapma</li><li>İletişim bilgilerini verme</li><li>Kaydı tamamlama</li></ol><br>Standart olayları özelleştirmek için siz veya geliştiriciniz alışveriş değeri veya arama dizesi gibi <a href='https://developers.facebook.com/docs/facebook-pixel/api-reference#events' target='_blank'>ek parametreler ekleyebilirsiniz</a>. Örneğin, alışveriş olayına parasal değer eklemek bir Facebook kampanyasının otuz iki satış getirdiğini bilmekle bu satışların tercih ettiğiniz para birimindeki gerçek değerini bilmek arasındaki farkı yaratabilir.",
		"instruction": "",
		"_isComplete": true,
		"_pageLevelProgress": {
			"_isEnabled": true
		}
	},
	{
		"_id": "c-430",
		"_parentId": "b-430",
		"_type": "component",
		"_component": "graphic",
		"_classes": "",
		"_layout": "full",
		"title": "Özel olaylar ve dönüşümler",
		"displayTitle": "Özel olaylar ve dönüşümler",
		"instruction": "",
		"body": "İşletmeniz için anlamlı olan ancak standart olayların kapsamadığı eylemleri ölçmek için özel olaylar oluşturabilirsiniz. Özel olaylar özel dönüşümler ile takip edilir.<br><br>Bunlar “ücretsiz e-kitap indirme”, “daha fazla bilgi isteme” veya “eğitmene e-posta gönderme” gibi eylemler olabilir.<br><br>Özel dönüşümleri reklam hesabınızın Piksel sekmesinden belirleyebilirsiniz. Facebook bu olayları kaydeder ancak reklam yayınınıza uygulayamaz. ",
		"_graphic": {
			"alt": "",
			"src": "course/en/images/custom_create.png"
		},
		"_isComplete": true,
		"_pageLevelProgress": {
			"_isEnabled": true
		}
	},
	{
		"_id": "c-430l",
		"_parentId": "b-430",
		"_type": "component",
		"_component": "graphic",
		"_classes": "",
		"_layout": "left",
		"title": "",
		"displayTitle": "",
		"instruction": "",
		"body": "Pikselinizle ilişkili sitenin temel URL’sini sağlayın. URL anahtar sözcükleri ekleyebilir ve dizinlere karşılık gelecek sözcükler kullanabilirsiniz.",
		"_graphic": {
			"alt": "",
			"src": "course/en/images/custom_01.png"
		},
		"_isComplete": false,
		"_pageLevelProgress": {
			"_isEnabled": false
		}
	},
	{
		"_id": "c-430r",
		"_parentId": "b-430",
		"_type": "component",
		"_component": "graphic",
		"_classes": "",
		"_layout": "right",
		"title": "",
		"displayTitle": "",
		"instruction": "",
		"body": "Ardından, özel dönüşümü oluştururken başlangıç noktası olarak kullanmak istediğiniz standart eylemi seçin.",
		"_graphic": {
			"alt": "",
			"src": "course/en/images/custom_02.png"
		},
		"_isComplete": false,
		"_pageLevelProgress": {
			"_isEnabled": false
		}
	},
	{
		"_id": "c-440",
		"_parentId": "b-440",
		"_type": "component",
		"_component": "text",
		"_classes": "",
		"_layout": "full",
		"title": "",
		"displayTitle": "",
		"body": "“Bizimle iletişime geçin” eylemine yönelik özel dönüşüm oluşturmak için İletişim sayfasına İçerik Görüntüleme olayı veya mesaj gönderme formunda bir potansiyel müşteri olayı yerleştirebilirsiniz. <br><br>Reklam hesabı başına aynı anda en fazla 40 özel dönüşümünüz olabilir. Yenilerini oluşturmak için istediğinizde aktif olmayanları silebilirsiniz.<br><br><div class='textCompWapper'><div class='textCompLeftDiv'><img src='course/en/images/tip.png' class='textCompImageCenter'></div><!-- .textCompLeftDiv end --><div class='textCompRightDiv'>Özel dönüşümleri dinamik ürün kataloğu reklamlarıyla birlikte kullanamayacağınızı unutmayın.</div><!-- .textCompRightDiv end --></div><!-- .textCompWrapper end -->",
		"instruction": "",
		"_isComplete": false,
		"_pageLevelProgress": {
			"_isEnabled": false
		}
	},

	{
		"_id": "c-450",
		"_parentId": "b-450",
		"_type": "component",
		"_component": "graphic",
		"_classes": "",
		"_layout": "full",
		"title": "Piksel olaylarını uygulama",
		"displayTitle": "Piksel olaylarını uygulama",
		"body": "Bir piksel olayını bir Facebook reklamıyla ilişkilendirmek için Dönüşüm veya Trafik kampanya amacını seçin. Reklam seti seviyesinde hangi piksel olayını reklamlarla ilişkilendirebileceğinizi seçebilirsiniz. <br><br>Reklam ölçümleri ve yayınını piksel olaylarına bağlamak harcamanızı optimize etmenize ve hedef kitle seçimini otomatikleştirmenize yardımcı olabilir. Ayrıca, eylemleri Facebook reklamlarıyla ilişkilendirmenize yardımcı olarak reklam harcaması getirisine ilişkin daha doğru veriler elde etmenizi sağlayabilir.",
		"instruction": "",
		"_graphic": {
			"alt": "Özel bir dönüşüm olayı seçin",
			"src": "course/en/images/pixel_select_conversion.png"
		},
		"_isComplete": false,
		"_pageLevelProgress": {
			"_isEnabled": true
		}
	},
	{
		"_id":"c-499",
		"_parentId":"b-499",
		"_type":"component",
		"_component":"co-jump",
		"_classes":"color-test",
		"_preLinkBody":"Veri odaklı bir pazarlama stratejisi geliştirmek ve bu stratejiye yön vermek üzere pikselinizin kaydettiği verileri ",
		"_linkBody":"ölçme ve analiz etme",
		"_postLinkBody":" konusunda bilgi edinin.",
		"_link":"#/id/co-500",
		"_graphic":"adapt/css/assets/icon_nextPage.png",
		"_pageLevelProgress": {
			"_isEnabled": false
		}
	},
	{
		"_id": "c-500",
		"_parentId": "b-500",
		"_type": "component",
		"_component": "text",
		"_classes": "",
		"_layout": "full",
		"title": "Piksel sizin için neleri ölçebilir?",
		"displayTitle": "",
		"body": "Reklam hesabınızdaki Facebook pikseli alanı aşağıdaki verileri zaman aralığına dayalı olarak görmenize olanak sağlar:<br><br><ul><li><strong>Trafik verileri</strong> internet sitenizde kaç adet piksel olayı gerçekleştiğini belirtir. Piksel hareketlerinin tarayıcı oturumlarıyla veya sayfa görüntülenmeleriyle ilişkili olmadığını unutmayın. Bir kişi internet sitenizden üç adet ürün satın aldığında bu işlem sekiz veya dokuz adet tekil piksel olayını tetikleyebilir. <li><strong>Piksel detayları</strong> piksel durumu ve en son olayın ne zaman gerçekleştiği gibi bilgileri sağlar.</li><li><strong>Veri filtreleri</strong> verilerinizin URL, Domain, Cihaz veya Olaya göre dağılımını gösterir. Bunların her biri için ne kadar trafik aldığınızı görebilirsiniz.</li></ul>",
		"instruction": "",
		"_isComplete": false,
		"_pageLevelProgress": {
			"_isEnabled": true
		}
	},
	{
		"_id": "c-510",
		"_parentId": "b-510",
		"_type": "component",
		"_component": "graphic",
		"_classes": "",
		"_layout": "full",
		"title": "Dönüşümleri takip etme",
		"displayTitle": "Dönüşümleri takip etme",
		"body": "Reklam Yöneticisi’nde dönüşüm verilerini kampanya, reklam seti veya reklam seviyesinde görüntülemek için <strong>Sütunları Özelleştir</strong> seçeneğini kullanın.",
		"instruction": "",
		"_graphic": {
			"alt": "Sütunları Özelleştirin",
			"src": "course/en/images/track_conversion.png"
		},
		"_isComplete": false,
		"_pageLevelProgress": {
			"_isEnabled": true
		}
	},
	{
		"_id": "c-520",
		"_parentId": "b-520",
		"_type": "component",
		"_component": "graphic",
		"_classes": "",
		"_layout": "full",
		"title": "",
		"displayTitle": "",
		"body": "Ardından işletmeniz için hangi dönüşümlerin en yüksek değere sahip olduğunu seçebilirsiniz. <strong>Ön ayar olarak kaydet</strong>’i seçerseniz bu ayarlar reklam Yöneticisi’ndeki varsayılan ölçümleriniz olur. ",
		"instruction": "",
		"_graphic": {
			"alt": "Dönüşümleri seçme",
			"src": "course/en/images/conversion_col.png"
		},
		"_isComplete": false,
		"_pageLevelProgress": {
			"_isEnabled": false
		}
	},
	{
		"_id": "c-530",
		"_parentId": "b-530",
		"_type": "component",
		"_component": "text",
		"_classes": "",
		"_layout": "full",
		"title": "Cihazları inceleme",
		"displayTitle": "Cihazları inceleme",
		"body": "Çapraz cihaz raporlamasını görüntülemek için kampanyayı, reklam setini veya reklamı seçip <strong>Kırılım</strong> açılır menüsünü seçin.",
		"instruction": "",
		"_isComplete": false,
		"_pageLevelProgress": {
			"_isEnabled": true
		}
	},

	{
		"_id": "c-530l",
		"_parentId": "b-530",
		"_type": "component",
		"_component": "graphic",
		"_classes": "",
		"_layout": "left",
		"title": "Cihaza göre görüntülemeler",
		"displayTitle": "",
		"body": "Reklamlarınızın nerelerde görüntülendiğini öğrenmek için <strong>YAYINA GÖRE > Gösterim Cihazı</strong> kırılımını seçin.",
		"instruction": "",
		"_graphic": {
			"alt": "Dönüşümleri seçme",
			"src": "course/en/images/device_impression.png"
		},
		"_isComplete": false,
		"_pageLevelProgress": {
			"_isEnabled": false
		}
	},
	{
		"_id": "c-530r",
		"_parentId": "b-530",
		"_type": "component",
		"_component": "graphic",
		"_classes": "",
		"_layout": "right",
		"title": "Cihaza göre dönüşümler",
		"displayTitle": "",
		"body": "İnsanların reklamlarınızla etkileşime girdiklerinde kullandıkları cihazların kırılımını görüntülemek için <strong>EYLEME GÖRE > Dönüşüm Cihazı</strong> kırılımını seçin.",
		"instruction": "",
		"_graphic": {
			"alt": "Dönüşümleri seçme",
			"src": "course/en/images/device_conversion.png"
		},
		"_isComplete": true,
		"_pageLevelProgress": {
			"_isEnabled": true
		}
	},
	{
		"_id": "c-540",
		"_parentId": "b-540",
		"_type": "component",
		"_component": "text",
		"_classes": "",
		"_layout": "full",
		"title": "Dönüşümleri reklam gösterimleriyle ilişkilendirmek için zaman aralığı",
		"displayTitle": "",
		"body": "Bir kişi iki farklı reklam görüp Alışveriş olayını tetiklerse bu olay tek dönüşüm olarak sayılır.<br><br>Varsayılan ilişkilendirme aralığı reklamınız görüntülendikten sonraki bir gün ve reklamınıza tıklandıktan sonraki 28 gündür. Facebook’un, kişilerin eylemlerini reklamlarınızla nasıl ilişkilendirdiğini <a href='https://facebook.com/business/help/304909959680406' target='_blank'>öğrenin</a>.",
		"instruction": "",
		"_isComplete": true,
		"_pageLevelProgress": {
			"_isEnabled": true
		}
	},
	{
		"_id": "c-550",
		"_parentId": "b-550",
		"_type": "component",
		"_component": "text",
		"_classes": "",
		"_layout": "full",
		"title": "Üçüncü taraf raporlama araçları",
		"displayTitle": "Üçüncü taraf raporlama araçları",
		"body": "Facebook, gösterimleri ve dönüşümleri zaman zaman diğer üçüncü taraf sistemlerden farklı şekilde raporlar. Birkaç önemli faklılık şunlardır:<br><br><ul><li>Birçok üçüncü taraf raporlama aracı çerezleri kullanır ve insanlar cihazları paylaştığında veya birden çok cihaz kullandığında bu doğru olmayan sonuçlara yol açabilir. </li><li>Üçüncü taraf raporlama araçları dönüşümleri reklamlarla ilişkilendirmek için genellikle yönlendirme URL’lerini kullanır. İnsanlar <code>https://</code> ön ekli bir siteden <code>http://</code> ortamına geçtiklerinde yönlendirme URL’leri toplam dönüşümlerin %40’a kadarını kaybedebilir. </li><li>Üçüncü taraf araçlar reklam yeni bir tarayıcı sekmesinde açıldığında da dönüşümleri ilişkilendirmede zorluk yaşar.</li><li>Bir kişi salı günü reklamı görüp cuma günü alışveriş yaparsa raporlama aracınız dönüşümün cuma günü olduğunu gösterir. Facebook, dönüşümün salı günü yani reklam gösteriminin olduğu gün gerçekleştiğini raporlar.</li><li>Bir kişi reklamı görüntüledikten sonra bir gün içinde veya reklama tıkladıktan sonra 28 gün içinde alışveriş yaparsa, Facebook dönüşümleri reklamlarla ilişkilendirir. Sizin raporlama aracınızın ilişkilendirme aralığı farklı olabilir.</li><br><br><a href='https://www.facebook.com/business/help/1179210765468894' target='_blank'>Facebook pikselini üçüncü taraf takip sağlayıcılarıyla entegre edebilirsiniz</a> (DoubleClick gibi). Ayrıntılı bilgiyi Facebook for Business Yardım Merkezi’nde bulabilirsiniz. ",
		"instruction": "",
		"_isComplete": true,
		"_pageLevelProgress": {
			"_isEnabled": true
		}
	},
	{
		"_id":"c-599",
		"_parentId":"b-599",
		"_type":"component",
		"_component":"co-jump",
		"_classes":"color-test",
		"_preLinkBody":"İşte oldu! Gitmeden önce hızlı bir ",
		"_linkBody":"Bilgi Kontrolü",
		"_postLinkBody":" yapıp ne kadarını hatırladığınıza bakalım.",
		"_link":"#/id/co-600",
		"_graphic":"adapt/css/assets/icon_nextPage.png",
		"_pageLevelProgress": {
				"_isEnabled": false
		}
	},
	{
		"_id":"c-600",
		"_parentId":"b-600",
		"_type":"component",
		"_component":"mcq",
		"_classes":"",
		"_layout":"full",
		"_attempts":1,
		"_shouldDisplayAttempts": false,
		"_questionWeight":1,
		"_isRandom":false,
		"_selectable":1,
		"_isResetOnRevisit":true,
		"_canShowModelAnswer": true,
		"_recordInteraction":true,
		"title": "Soru 1/4",
		"displayTitle": "Soru 1/4",
		"body": "Facebook pikselini kullanmak için internet sitenize ne yüklemeniz <em>gerekir</em>?",
		"instruction": "",
		"_items": [
			{
				"text": "URL parametreleri",
				"_shouldBeSelected":false
			},
			{
				"text": "Özel dönüşümler",
				"_shouldBeSelected":false,
				"feedback":""
			},
			{
				"text": "Pikselin sabit kodu",
				"_shouldBeSelected":true
			},
			{
				"text": "Olay kodu",
				"_shouldBeSelected":false
			}
		],
		"_feedback":{
			"correct":"Doğru! Pikselin sabit kodu, çevrimiçi olayları ve dönüşümleri ölçmek için bir başlangıç noktası sağlar.",
			"_incorrect": {
				"notFinal": "",
				"final": "Yanlış. Pikselin sabit kodu, çevrimiçi olayları ve dönüşümleri ölçmek için bir başlangıç noktası sağlar."
			}
		},
		"_buttons": {
	        "_submit": {
				"buttonText": "Gönder",
				"ariaLabel": "Cevabınızı göndermek için buraya tıklayın."
			},
			"_showFeedback": {
				"buttonText": "Geribildirimi göster",
				"ariaLabel": "Geribildirimi göster"
			},

	        "_showCorrectAnswer": {
	            "buttonText": "Doğru cevap",
	            "ariaLabel": "Doğru cevabı görmek için buraya tıklayın."
	        },
	        "_hideCorrectAnswer": {
	            "buttonText": "Benim cevabım",
	            "ariaLabel": "Verdiğiniz cevabı görmek için buraya tıklayın."
	        },
	        "_showFeedback": {
				"buttonText": "Geribildirimi göster",
				"ariaLabel": "Soru geribildirimini tekrar görmek için buraya tıklayın."
	        },
	        "remainingAttemptsText": "deneme kaldı",
	        "remainingAttemptText": "son deneme",
	        "disabledAriaLabel": "Bu düğme şu anda devre dışı."
		},
		"_isComplete": true,
		"_pageLevelProgress": {
			"_isEnabled": true
		}
	},

	{
		"_id":"c-610",
		"_parentId":"b-610",
		"_type":"component",
		"_component":"mcq",
		"_classes":"",
		"_layout":"full",
		"_attempts":1,
		"_shouldDisplayAttempts": false,
		"_questionWeight":1,
		"_isRandom":false,
		"_selectable":3,
		"_isResetOnRevisit":true,
		"_canShowModelAnswer": true,
		"_recordInteraction":true,
		"title": "Soru 2/4",
		"displayTitle": "Soru 2/4",
		"body": "Hangi ÜÇ eylem bir piksel <em>gerektirir</em> veya piksel ile geliştirilebilir?",
		"instruction": "",
		"_items": [
			{
				"text": "İnternet sitesi ziyaretçilerini yeniden hedefleme",
				"_shouldBeSelected":true
			},
			{
				"text": "Reklam kampanyalarınızın erişimini genişletme",
				"_shouldBeSelected":false
			},
			{
				"text": "Dinamik ürün reklamları yayınlama",
				"_shouldBeSelected":true
			},
			{
				"text": "Dönüşümler için optimizasyon ve ölçüm yapma",
				"_shouldBeSelected":true
			}
		],
		"_feedback":{
			"correct":"Doğru! Piksel, Facebook’taki pazarlamanızın erişimini değil doğruluğunu artırır ve dönüşümleri daha doğru şekilde ölçmenize yardımcı olabilir.",
			"_incorrect": {
				"notFinal": "",
				"final": "Üzgünüz, yanlış cevap. Piksel, Facebook’taki pazarlamanızın erişimini değil doğruluğunu artırır ve dönüşümleri daha doğru şekilde ölçmenize yardımcı olabilir."
			},
			"_partlyCorrect": {
				"notFinal": "",
				"final": "Neredeyse oluyordu. Piksel, Facebook’taki pazarlamanızın erişimini değil doğruluğunu artırır ve dönüşümleri daha doğru şekilde ölçmenize yardımcı olabilir."
			}
		},
		"_buttons": {
	        "_submit": {
	            "buttonText": "Gönder",
	            "ariaLabel": "Cevabınızı göndermek için buraya tıklayın."
	        },
			"_showFeedback": {
		      "buttonText": "Geribildirimi göster",
		      "ariaLabel": "Geribildirimi Göster"
			},
	        "_showCorrectAnswer": {
	            "buttonText": "Doğru cevap",
	            "ariaLabel": "Doğru cevabı görmek için buraya tıklayın."
	        },
	        "_hideCorrectAnswer": {
	            "buttonText": "Benim cevabım",
	            "ariaLabel": "Verdiğiniz cevabı görmek için buraya tıklayın."
	        },
	        "_showFeedback": {
				"buttonText": "Geribildirimi göster",
				"ariaLabel": "Soru geribildirimini tekrar görmek için buraya tıklayın."
	        },
	        "remainingAttemptsText": "deneme kaldı",
	        "remainingAttemptText": "son deneme",
	        "disabledAriaLabel": "Bu düğme şu anda devre dışı."
		},
		"_isComplete": true,
		"_pageLevelProgress": {
			"_isEnabled": true
		}
	},
	{
		"_id":"c-620",
		"_parentId":"b-620",
		"_type":"component",
		"_component":"mcq",
		"_classes":"",
		"_layout":"full",
		"_attempts":1,
		"_shouldDisplayAttempts": false,
		"_questionWeight":1,
		"_isRandom":false,
		"_selectable":1,
		"_isResetOnRevisit":true,
		"_canShowModelAnswer": true,
		"_recordInteraction":true,
		"title": "Soru 3/4",
		"displayTitle": "Soru 3/4",
		"body": "Hangi olay türü takip, hedefleme ve yayın optimizasyonunda yardımcı olabilir?",
		"instruction": "",
		"_items": [
			{
				"text": "Standart olay",
				"_shouldBeSelected":true
			},
			{
				"text": "Özel olay",
				"_shouldBeSelected":false,
				"feedback":""
			},
			{
				"text": "Özel dönüşüm",
				"_shouldBeSelected":false
			},
			{
				"text": "Dinamik dönüşüm",
				"_shouldBeSelected":false,
				"feedback":""
			}
		],
		"_feedback":{
			"correct":"Bildiniz! Facebook standart olayları anlayabildiğinden, reklamları daha etkili şekilde yayınlamanıza yardımcı olmak için onları kullanabiliriz.",
			"_incorrect": {
				"notFinal": "",
				"final": "Pek sayılmaz. Facebook standart olayları anlayabildiğinden, reklamları daha etkili şekilde yayınlamanıza yardımcı olmak için onları kullanabiliriz."
			},
			"_partlyCorrect": {
				"notFinal": "",
				"final": "Neredeyse oluyordu. Açıklama mesajı."
			}
		},
		"_buttons": {
	        "_submit": {
	            "buttonText": "Gönder",
	            "ariaLabel": "Cevabınızı göndermek için buraya tıklayın."
	        },
			"_showFeedback": {
		      "buttonText": "Geribildirimi göster",
		      "ariaLabel": "Geribildirimi Göster"
		  	},
	        "_showCorrectAnswer": {
	            "buttonText": "Doğru cevap",
	            "ariaLabel": "Doğru cevabı görmek için buraya tıklayın."
	        },
	        "_hideCorrectAnswer": {
	            "buttonText": "Benim cevabım",
	            "ariaLabel": "Verdiğiniz cevabı görmek için buraya tıklayın."
	        },
	        "_showFeedback": {
				"buttonText": "Geribildirimi göster",
				"ariaLabel": "Soru geribildirimini tekrar görmek için buraya tıklayın."
	        },
	        "remainingAttemptsText": "deneme kaldı",
	        "remainingAttemptText": "son deneme",
	        "disabledAriaLabel": "Bu düğme şu anda devre dışı."
		},
		"_isComplete": true,
		"_pageLevelProgress": {
			"_isEnabled": true
		}
	},
	{
		"_id":"c-630",
		"_parentId":"b-630",
		"_type":"component",
		"_component":"mcq",
		"_classes":"",
		"_layout":"full",
		"_attempts":1,
		"_setCompletionOn":"inview",
		"_shouldDisplayAttempts": false,
		"_questionWeight":1,
		"_isRandom":false,
		"_selectable":1,
		"_isResetOnRevisit":true,
		"_canShowModelAnswer": true,
		"_recordInteraction":true,
		"title": "Soru 4/4",
		"displayTitle": "Soru 4/4",
		"body": "Hangi Facebook aracı, bir pikseli harici bir ajansla veya şirket içi ekiplerle paylaşmanıza olanak tanır?",
		"instruction": "",
		"_items": [
			{
				"text": "Reklam hesabı",
				"_shouldBeSelected":false
			},
			{
				"text": "Hedef Kitle İstatistikleri",
				"_shouldBeSelected":false,
				"feedback":""
			},
			{
				"text": "Reklam Yöneticisi",
				"_shouldBeSelected":false
			},
			{
				"text": "Business Manager",
				"_shouldBeSelected":true,
				"feedback":""
			}
		],
		"_feedback":{
			"correct":"Doğru! Piksel verilerini paylaşabilmek için Business Manager’ı etkinleştirmeniz gerekir.",
			"_incorrect": {
				"notFinal": "",
				"final": "Üzgünüz, yanlış cevap. Piksel verilerini paylaşabilmek için Business Manager’ı etkinleştirmeniz gerekir."
			}
		},
		"_buttons": {
	        "_submit": {
	            "buttonText": "Gönder",
	            "ariaLabel": "Cevabınızı göndermek için buraya tıklayın."
	        },
			"_showFeedback": {
				"buttonText": "Geribildirimi göster",
				"ariaLabel": "Geribildirimi Göster"
		    },
	        "_showCorrectAnswer": {
	            "buttonText": "Doğru cevap",
	            "ariaLabel": "Doğru cevabı görmek için buraya tıklayın."
	        },
	        "_hideCorrectAnswer": {
	            "buttonText": "Benim cevabım",
	            "ariaLabel": "Verdiğiniz cevabı görmek için buraya tıklayın."
	        },
	        "_showFeedback": {
	            "buttonText": "Geribildirimi göster",
	            "ariaLabel": "Soru geribildirimini tekrar görmek için buraya tıklayın."
	        },
	        "remainingAttemptsText": "deneme kaldı",
	        "remainingAttemptText": "son deneme",
	        "disabledAriaLabel": "Bu düğme şu anda devre dışı."
		},
		"_isComplete": true,
		"_pageLevelProgress": {
			"_isEnabled": true
		}
	},
	{
		"_id":"c-699",
		"_parentId":"b-699",
		"_type":"component",
		"_component":"co-jump",
		"_classes":"color-test",
		"_autoComplete":true,
		"_preLinkBody":"Bu kursu bitirmek için aşağıdaki düğmeye tıklayın. Not: Tüm modüller için durum çubuklarının tamamlandığından emin olmak için <a href='#'>buraya tıklayın</a>.<br>",
		"_linkBody":"<div style = 'text-align:center;padding:8px;'><button class='buttons-action'><strong>BU KURSU BİTİRDİM</strong></button></div><br> ",
		"_postLinkBody":"",
		"_link":"",
		"_pageLevelProgress": {
			"_isEnabled": false
		}
	}
]
