{
    "_globals": {
        "_components": {
            "_accordion": {
                "ariaRegion": "Bu bileşen, ekran metni içeren açılıp kapanabilir içerik panellerinden oluşan bir katlanır öğedir. Bu içerik panellerinin görünürlük durumunu değiştirmek için öğe başlıklarını seçin.",
                "instruction": ""
            },
            "_gmcq": {
                "ariaRegion": "Bu bileşen grafik şeklinde bir çoktan seçmeli sorudur. Bir seçim yaptıktan sonra aşağıdaki gönderme düğmesini seçin.",
                "instruction": ""
            },
            "_hotgraphic": {
                "ariaRegion": "Below is a component which allows you to select hot spots over an image. Select a hot spot to trigger a popup that includes an image with display text. Select the close button to close the popup.",
                "ariaPoupupLabel": "Hotgraphic popup"
            },
            "_matching": {
                "ariaRegion": "Bu soru bileşeni, aşağıdaki bir açılır listeden uygun cevabı seçmenizi gerektirir. Cevaplarınızı seçtikten sonra gönderme düğmesini seçin.",
                "instruction": ""
            },
            "_mcq": {
                "ariaRegion": "Bu bileşen bir çoktan seçmeli sorudur. Bir seçim yaptıktan sonra aşağıdaki gönderme düğmesini seçin",
                "instruction": ""
            },
            "_media": {
                "ariaRegion": "Bu, bir video oynatan bir medya bileşenidir. İzlemek veya dinlemek için oynat/duraklat düğmesini seçin. Alternatif olarak metni görmek için aşağıdaki bağlantıyı seçebilirsiniz.",
                "transcriptButton": "Alternatively you can select the link below for the transcript.",
                "instruction": ""
            },
            "_narrative": {
                "ariaRegion": "Bu bileşen, metinler de içeren bir görsel galerisini görüntüler. Metin üzerinde çalışmak için ileri ve geri gezinme denetimlerini kullanın.",
                "instruction": ""
            },
            "_phaser": {
                "ariaRegion": ""
            },
            "_slider": {
                "ariaRegion": "Bu bileşen, doğru değeri seçerek soruyu cevaplamanızı gerektirir. Bir değer seçtikten sonra aşağıdaki gönderme düğmesini seçin.",
                "instruction": ""
            },
            "_textinput": {
                "ariaRegion": "This question component requires you to input your answer in the textbox provided. When you have answered the question select the submit button below."
            },
            "_mcq-truefalse": {
                "ariaRegion": "This component is a multiple choice question. Once you have selected an option select the submit button below"
            },
            "_blank": {
                "ariaRegion": "",
                "instruction": ""
            },
            "_graphic": {
                "ariaRegion": "",
                "instruction": ""
            },
            "_hotGraphic": {
                "ariaRegion": "Aşağıdaki bileşen bir görsel üzerindeki noktaları seçmenize imkan tanır. Ekran metni içeren bir görselle bir açılır pencerenin görünmesi için bir nokta seçin. Açılır pencereyi kapatmak için kapat düğmesini seçin.",
                "instruction": ""
            },
            "_text": {
                "ariaRegion": "",
                "instruction": ""
            },
            "_textInput": {
                "ariaRegion": "Bu soru bileşeni, cevabı verilen metin kutusuna yazmanızı gerektirir. Soruyu cevapladıktan sonra aşağıdaki gönderme düğmesini seçin.",
                "instruction": ""
            }
        },
        "_extensions": {
            "_pageLevelProgress": {
                "pageLevelProgress": "Sayfa kısımları",
                "pageLevelProgressIndicatorBar": "İlerleme çubuğu. İlerleme durumunuzu görmek için burayı seçin ve bir içeriğe gitmek için içeriği seçin. Tamamladınız ",
                "pageLevelProgressEnd": "Sayfa kısımları listesinin sonuna geldiniz.",
                "optionalContent": "İsteğe Bağlı İçerik"
            }
        },
        "_menu": {
            "_boxmenu": {
                "ariaRegion": "Menü",
                "menuItem": "Menü öğesi.",
                "menuEnd": "Menünün sonuna geldiniz."
            }
        },
        "_accessibility": {
            "_accessibilityToggleTextOn": "Erişilebilirlik açılsın mı?",
            "_accessibilityToggleTextOff": "Erişilebilirlik kapatılsın mı?",
            "_accessibilityInstructions": {
                "touch": "Kullanım talimatları. Sonraki için sola kaydırın. Önceki için sağa kaydırın. Seçmek için çift dokunun. Sayfanın başına gitmek için iki parmağınızla yukarı kaydırın.",
                "notouch": "Kullanım talimatları. Sonraki için Tab tuşuna basın. Önceki için Shift tuşuna basın. Seçmek için Enter tuşuna basın. Sayfanın başına gitmek için Esc tuşuna basın.",
                "ipad": "Dokunmatik ekranlar için kullanım talimatları. Sonraki için sola kaydırın. Önceki için sağa kaydırın. Seçmek için çift dokunun. Sayfanın başına gitmek için iki parmağınızla yukarı kaydırın. Klavye erişimi için kullanım talimatları. Sonraki için sol ok tuşuna basın. Önceki için sağ ok tuşuna basın. Seçmek için yukarı ve aşağı ok tuşlarına aynı anda basın."
            },
            "_ariaLabels": {
                "navigation": "Kurs gezinme menüsü",
                "menuLoaded": "Menü Yüklendi.",
                "menu": "Menü",
                "page": "Sayfa",
                "pageLoaded": "Sayfa Yüklendi.",
                "pageEnd": "Sayfanın sonuna geldiniz.",
                "previous": "Geri",
                "navigationBack": "Geri gidin",
                "navigationDrawer": "Kurs kaynaklarını açın.",
                "close": "Kapat",
                "closeDrawer": "Çekmeceyi Kapat",
                "closeResources": "Kaynakları kapatın",
                "resourcesEnd": "Kaynak listesinin sonuna geldiniz.",
                "drawerBack": "Çekmeceye dönün",
                "drawer": "Çekmecenin üst kısmı",
                "closePopup": "Açılır pencereyi kapatın",
                "next": "İleri",
                "done": "Bitti",
                "complete": "Tamamlandı",
                "incomplete": "Tamamlanmadı",
                "incorrect": "Yanlış",
                "correct": "Doğru",
                "locked": "Kilitli",
                "accessibilityToggleButton": "Bu düğmeyi seçerek erişilebilirliği açık veya kapalı olarak ayarlayabilirsiniz",
                "feedbackPopUp": "Açılır pencere açıldı.",
                "menuBack": "Menüye dön",
                "visited": "Ziyaret edildi"
            }
        }
    },
    "_id": "course",
    "_type": "course",
    "title": "Facebook Pikseli ile Reklam Yayınlama ve Sonuçları Değerlendirme",
    "displayTitle": "Facebook Pikseli ile Reklam Yayınlama ve Sonuçları Değerlendirme",
    "body": "",
    "_buttons": {
        "_submit": {
            "buttonText": "Gönder",
            "ariaLabel": "Cevabınızı göndermek için buraya tıklayın."
        },
        "_reset": {
            "buttonText": "Sıfırla",
            "ariaLabel": "Soruyu sıfırlamak için buraya tıklayın."
        },
        "_showCorrectAnswer": {
            "buttonText": "Doğru cevap",
            "ariaLabel": "Doğru cevabı görmek için buraya tıklayın."
        },
        "_hideCorrectAnswer": {
            "buttonText": "Benim cevabım",
            "ariaLabel": "Verdiğiniz cevabı görmek için buraya tıklayın."
        },
        "_showFeedback": {
            "buttonText": "Geribildirimi göster",
            "ariaLabel": "Soru geribildirimini tekrar görmek için buraya tıklayın."
        },
        "remainingAttemptsText": "deneme kaldı",
        "remainingAttemptText": "son deneme",
        "disabledAriaLabel": "Bu düğme şu anda devre dışı."
    },
    "_courseCompleted": {
        "title": "Tebrikler!",
        "body": "Bu kursu tamamladınız.",
        "exitButton": "Kurstan Çık"
    },
    "_latestTrackingId": 37,
    "_pageLevelProgress": {
        "_isEnabled": true,
        "_altText": "sayfa bileşenini tamamladınız."
    },
    "_bookmarking": {
        "_isEnabled": true,
        "_level": "component",
        "title": "Yer işareti",
        "body": "Bıraktığınız yerden devam etmek ister misiniz?",
        "_buttons": {
            "yes": "Evet",
            "no": "Hayır"
        }
    },
    "_analytics": {
        "_isEnabled": true
    }
}